%YAML 1.1
%TAG !u! tag:unity3d.com,2011:
--- !u!1 &1717044778061851570
GameObject:
  m_ObjectHideFlags: 0
  m_CorrespondingSourceObject: {fileID: 0}
  m_PrefabInstance: {fileID: 0}
  m_PrefabAsset: {fileID: 0}
  serializedVersion: 6
  m_Component:
  - component: {fileID: 830128883223800365}
  - component: {fileID: 316107865749384232}
  - component: {fileID: 8807766853071257057}
  m_Layer: 31
  m_Name: Layer1
  m_TagString: Untagged
  m_Icon: {fileID: 0}
  m_NavMeshLayer: 0
  m_StaticEditorFlags: 0
  m_IsActive: 1
--- !u!4 &830128883223800365
Transform:
  m_ObjectHideFlags: 0
  m_CorrespondingSourceObject: {fileID: 0}
  m_PrefabInstance: {fileID: 0}
  m_PrefabAsset: {fileID: 0}
  m_GameObject: {fileID: 1717044778061851570}
  m_LocalRotation: {x: -0, y: -0, z: -0, w: 1}
  m_LocalPosition: {x: 0, y: 0, z: 0}
  m_LocalScale: {x: 1, y: 1, z: 1}
  m_Children: []
  m_Father: {fileID: 3901475110075964002}
  m_RootOrder: 0
  m_LocalEulerAnglesHint: {x: 0, y: 0, z: 0}
--- !u!1839735485 &316107865749384232
Tilemap:
  m_ObjectHideFlags: 0
  m_CorrespondingSourceObject: {fileID: 0}
  m_PrefabInstance: {fileID: 0}
  m_PrefabAsset: {fileID: 0}
  m_GameObject: {fileID: 1717044778061851570}
  m_Enabled: 1
  m_Tiles:
  - first: {x: 0, y: -3, z: 0}
    second:
      serializedVersion: 2
      m_TileIndex: 13
      m_TileSpriteIndex: 13
      m_TileMatrixIndex: 0
      m_TileColorIndex: 0
      m_TileObjectToInstantiateIndex: 65535
      m_AllTileFlags: 1073741824
  - first: {x: 1, y: -3, z: 0}
    second:
      serializedVersion: 2
      m_TileIndex: 14
      m_TileSpriteIndex: 14
      m_TileMatrixIndex: 0
      m_TileColorIndex: 0
      m_TileObjectToInstantiateIndex: 65535
      m_AllTileFlags: 1073741824
  - first: {x: 2, y: -3, z: 0}
    second:
      serializedVersion: 2
      m_TileIndex: 15
      m_TileSpriteIndex: 15
      m_TileMatrixIndex: 0
      m_TileColorIndex: 0
      m_TileObjectToInstantiateIndex: 65535
      m_AllTileFlags: 1073741824
  - first: {x: 3, y: -3, z: 0}
    second:
      serializedVersion: 2
      m_TileIndex: 16
      m_TileSpriteIndex: 16
      m_TileMatrixIndex: 0
      m_TileColorIndex: 0
      m_TileObjectToInstantiateIndex: 65535
      m_AllTileFlags: 1073741824
  - first: {x: 0, y: -2, z: 0}
    second:
      serializedVersion: 2
      m_TileIndex: 9
      m_TileSpriteIndex: 9
      m_TileMatrixIndex: 0
      m_TileColorIndex: 0
      m_TileObjectToInstantiateIndex: 65535
      m_AllTileFlags: 1073741824
  - first: {x: 1, y: -2, z: 0}
    second:
      serializedVersion: 2
      m_TileIndex: 10
      m_TileSpriteIndex: 10
      m_TileMatrixIndex: 0
      m_TileColorIndex: 0
      m_TileObjectToInstantiateIndex: 65535
      m_AllTileFlags: 1073741824
  - first: {x: 2, y: -2, z: 0}
    second:
      serializedVersion: 2
      m_TileIndex: 11
      m_TileSpriteIndex: 11
      m_TileMatrixIndex: 0
      m_TileColorIndex: 0
      m_TileObjectToInstantiateIndex: 65535
      m_AllTileFlags: 1073741824
  - first: {x: 3, y: -2, z: 0}
    second:
      serializedVersion: 2
      m_TileIndex: 12
      m_TileSpriteIndex: 12
      m_TileMatrixIndex: 0
      m_TileColorIndex: 0
      m_TileObjectToInstantiateIndex: 65535
      m_AllTileFlags: 1073741824
  - first: {x: 0, y: -1, z: 0}
    second:
      serializedVersion: 2
      m_TileIndex: 5
      m_TileSpriteIndex: 5
      m_TileMatrixIndex: 0
      m_TileColorIndex: 0
      m_TileObjectToInstantiateIndex: 65535
      m_AllTileFlags: 1073741824
  - first: {x: 1, y: -1, z: 0}
    second:
      serializedVersion: 2
      m_TileIndex: 6
      m_TileSpriteIndex: 6
      m_TileMatrixIndex: 0
      m_TileColorIndex: 0
      m_TileObjectToInstantiateIndex: 65535
      m_AllTileFlags: 1073741824
  - first: {x: 2, y: -1, z: 0}
    second:
      serializedVersion: 2
      m_TileIndex: 7
      m_TileSpriteIndex: 8
      m_TileMatrixIndex: 0
      m_TileColorIndex: 0
      m_TileObjectToInstantiateIndex: 65535
      m_AllTileFlags: 1073741824
  - first: {x: 3, y: -1, z: 0}
    second:
      serializedVersion: 2
      m_TileIndex: 8
      m_TileSpriteIndex: 7
      m_TileMatrixIndex: 0
      m_TileColorIndex: 0
      m_TileObjectToInstantiateIndex: 65535
      m_AllTileFlags: 1073741824
  - first: {x: -1, y: 0, z: 0}
    second:
      serializedVersion: 2
      m_TileIndex: 4
      m_TileSpriteIndex: 4
      m_TileMatrixIndex: 0
      m_TileColorIndex: 0
      m_TileObjectToInstantiateIndex: 65535
      m_AllTileFlags: 0
  - first: {x: 0, y: 0, z: 0}
    second:
      serializedVersion: 2
      m_TileIndex: 0
      m_TileSpriteIndex: 0
      m_TileMatrixIndex: 0
      m_TileColorIndex: 0
      m_TileObjectToInstantiateIndex: 65535
      m_AllTileFlags: 1073741824
  - first: {x: 1, y: 0, z: 0}
    second:
      serializedVersion: 2
      m_TileIndex: 3
      m_TileSpriteIndex: 3
      m_TileMatrixIndex: 0
      m_TileColorIndex: 0
      m_TileObjectToInstantiateIndex: 65535
      m_AllTileFlags: 1073741824
  - first: {x: 2, y: 0, z: 0}
    second:
      serializedVersion: 2
      m_TileIndex: 2
      m_TileSpriteIndex: 2
      m_TileMatrixIndex: 0
      m_TileColorIndex: 0
      m_TileObjectToInstantiateIndex: 65535
      m_AllTileFlags: 1073741824
  - first: {x: 3, y: 0, z: 0}
    second:
      serializedVersion: 2
      m_TileIndex: 1
      m_TileSpriteIndex: 1
      m_TileMatrixIndex: 0
      m_TileColorIndex: 0
      m_TileObjectToInstantiateIndex: 65535
      m_AllTileFlags: 1073741824
  m_AnimatedTiles: {}
  m_TileAssetArray:
  - m_RefCount: 1
    m_Data: {fileID: 11400000, guid: 7f30bd74f90feb64b92ca2d616339419, type: 2}
  - m_RefCount: 1
    m_Data: {fileID: 11400000, guid: 29c40fd2a6441654cb8942263c8745f2, type: 2}
  - m_RefCount: 1
    m_Data: {fileID: 11400000, guid: 72937884281ea6743ae9f8c2d44492c3, type: 2}
  - m_RefCount: 1
    m_Data: {fileID: 11400000, guid: 644bd7df8cdbe0d438188e55a7d91f2e, type: 2}
  - m_RefCount: 1
    m_Data: {fileID: 11400000, guid: 40d7be3f0acc07941879c7764c32bf0c, type: 2}
  - m_RefCount: 1
    m_Data: {fileID: 11400000, guid: a9ac9014f2e9dca488d1cd4f356785b5, type: 2}
  - m_RefCount: 1
    m_Data: {fileID: 11400000, guid: 7568b951ca13f2844b4fa0a3f9fb7898, type: 2}
  - m_RefCount: 1
    m_Data: {fileID: 11400000, guid: 1249dcbad73c31b43989ab48f923c8d1, type: 2}
  - m_RefCount: 1
    m_Data: {fileID: 11400000, guid: c271b013e237be549b1e335df93e2a1e, type: 2}
  - m_RefCount: 1
    m_Data: {fileID: 11400000, guid: 9421b63ca3d3dbd4fac25d464db48643, type: 2}
  - m_RefCount: 1
    m_Data: {fileID: 11400000, guid: 8e3f3349b359f374ba56bd3b34b6c0a0, type: 2}
  - m_RefCount: 1
    m_Data: {fileID: 11400000, guid: ae842b81f73ceb6458df62d88bb4f7d7, type: 2}
  - m_RefCount: 1
    m_Data: {fileID: 11400000, guid: b036178a41129fa42992cdd5fe89a139, type: 2}
  - m_RefCount: 1
    m_Data: {fileID: 11400000, guid: 1bad45269a24bb3418984de542efab82, type: 2}
  - m_RefCount: 1
    m_Data: {fileID: 11400000, guid: 2b25135e737f132499464650f4a07978, type: 2}
  - m_RefCount: 1
    m_Data: {fileID: 11400000, guid: 93b44f827fb55f04aad3cd91ccffa4c9, type: 2}
  - m_RefCount: 1
    m_Data: {fileID: 11400000, guid: 3228c26d31a926447a57162623547540, type: 2}
  m_TileSpriteArray:
  - m_RefCount: 1
    m_Data: {fileID: 21300000, guid: de220ff0d33375a49bfedf38900dab7e, type: 3}
  - m_RefCount: 1
    m_Data: {fileID: 21300000, guid: 270edf03b4640504297a41c806cf6aad, type: 3}
  - m_RefCount: 1
    m_Data: {fileID: 21300000, guid: ea01e3d72200bbc4ab1adfe82fbfc897, type: 3}
  - m_RefCount: 1
    m_Data: {fileID: 21300000, guid: c866789c2bc0efe4ebb7e1902789cc6a, type: 3}
  - m_RefCount: 1
    m_Data: {fileID: 21300000, guid: c59d822511fb4c24d8f976bca4d6e5de, type: 3}
  - m_RefCount: 1
    m_Data: {fileID: 21300000, guid: 7bce9240d187e0242a01346aeae9c1cc, type: 3}
  - m_RefCount: 1
    m_Data: {fileID: 21300000, guid: 1ecb736e9512f6745bd4a64171042992, type: 3}
  - m_RefCount: 1
    m_Data: {fileID: 21300000, guid: 5431d8fa017a6fa42a8f5abe2b43ce32, type: 3}
  - m_RefCount: 1
    m_Data: {fileID: 21300000, guid: e3a02e31eb1d04e4b986556f6407c85d, type: 3}
  - m_RefCount: 1
    m_Data: {fileID: 21300000, guid: f8fad67769307a84b8759dab87e662fb, type: 3}
  - m_RefCount: 1
    m_Data: {fileID: 21300000, guid: 1174a48e71618af4bb88237d1040aff5, type: 3}
  - m_RefCount: 1
    m_Data: {fileID: 21300000, guid: cb271dd9107e2af458fb97eab1f19f99, type: 3}
  - m_RefCount: 1
    m_Data: {fileID: 21300000, guid: 802f48f0e85c10449ba5742b2a33e26a, type: 3}
  - m_RefCount: 1
    m_Data: {fileID: 21300000, guid: fbe384ee623bc7f43a5616a00c67f8d2, type: 3}
  - m_RefCount: 1
    m_Data: {fileID: 21300000, guid: f0d5657c85097a94b895d03e389ed986, type: 3}
  - m_RefCount: 1
    m_Data: {fileID: 21300000, guid: 870f5658772a7734d8490d7d476c4a89, type: 3}
  - m_RefCount: 1
    m_Data: {fileID: 21300000, guid: 4e68f610122408b42bbd5975c9ab9f3a, type: 3}
  m_TileMatrixArray:
  - m_RefCount: 17
    m_Data:
      e00: 1
      e01: 0
      e02: 0
      e03: 0
      e10: 0
      e11: 1
      e12: 0
      e13: 0
      e20: 0
      e21: 0
      e22: 1
      e23: 0
      e30: 0
      e31: 0
      e32: 0
      e33: 1
  m_TileColorArray:
  - m_RefCount: 17
    m_Data: {r: 1, g: 1, b: 1, a: 1}
  m_TileObjectToInstantiateArray: []
  m_AnimationFrameRate: 1
  m_Color: {r: 1, g: 1, b: 1, a: 1}
  m_Origin: {x: -10, y: -3, z: 0}
  m_Size: {x: 14, y: 7, z: 1}
  m_TileAnchor: {x: 0.5, y: 0.5, z: 0}
  m_TileOrientation: 0
  m_TileOrientationMatrix:
    e00: 1
    e01: 0
    e02: 0
    e03: 0
    e10: 0
    e11: 1
    e12: 0
    e13: 0
    e20: 0
    e21: 0
    e22: 1
    e23: 0
    e30: 0
    e31: 0
    e32: 0
    e33: 1
--- !u!483693784 &8807766853071257057
TilemapRenderer:
  m_ObjectHideFlags: 0
  m_CorrespondingSourceObject: {fileID: 0}
  m_PrefabInstance: {fileID: 0}
  m_PrefabAsset: {fileID: 0}
  m_GameObject: {fileID: 1717044778061851570}
  m_Enabled: 0
  m_CastShadows: 0
  m_ReceiveShadows: 0
  m_DynamicOccludee: 0
  m_MotionVectors: 1
  m_LightProbeUsage: 0
  m_ReflectionProbeUsage: 0
  m_RayTracingMode: 0
  m_RenderingLayerMask: 1
  m_RendererPriority: 0
  m_Materials:
  - {fileID: 10754, guid: 0000000000000000f000000000000000, type: 0}
  m_StaticBatchInfo:
    firstSubMesh: 0
    subMeshCount: 0
  m_StaticBatchRoot: {fileID: 0}
  m_ProbeAnchor: {fileID: 0}
  m_LightProbeVolumeOverride: {fileID: 0}
  m_ScaleInLightmap: 1
  m_ReceiveGI: 1
  m_PreserveUVs: 0
  m_IgnoreNormalsForChartDetection: 0
  m_ImportantGI: 0
  m_StitchLightmapSeams: 1
  m_SelectedEditorRenderState: 0
  m_MinimumChartSize: 4
  m_AutoUVMaxDistance: 0.5
  m_AutoUVMaxAngle: 89
  m_LightmapParameters: {fileID: 0}
  m_SortingLayerID: 0
  m_SortingLayer: 0
  m_SortingOrder: 0
  m_ChunkSize: {x: 32, y: 32, z: 32}
  m_ChunkCullingBounds: {x: 0.75, y: 0.70500004, z: 0}
  m_MaxChunkCount: 16
  m_MaxFrameAge: 16
  m_SortOrder: 0
  m_Mode: 0
  m_DetectChunkCullingBounds: 0
  m_MaskInteraction: 0
--- !u!1 &5144083806402975951
GameObject:
  m_ObjectHideFlags: 0
  m_CorrespondingSourceObject: {fileID: 0}
  m_PrefabInstance: {fileID: 0}
  m_PrefabAsset: {fileID: 0}
  serializedVersion: 6
  m_Component:
  - component: {fileID: 3901475110075964002}
  - component: {fileID: 5225038521294111333}
  m_Layer: 31
  m_Name: PipePalette
  m_TagString: Untagged
  m_Icon: {fileID: 0}
  m_NavMeshLayer: 0
  m_StaticEditorFlags: 0
  m_IsActive: 1
--- !u!4 &3901475110075964002
Transform:
  m_ObjectHideFlags: 0
  m_CorrespondingSourceObject: {fileID: 0}
  m_PrefabInstance: {fileID: 0}
  m_PrefabAsset: {fileID: 0}
  m_GameObject: {fileID: 5144083806402975951}
  m_LocalRotation: {x: 0, y: 0, z: 0, w: 1}
  m_LocalPosition: {x: 0, y: 0, z: 0}
  m_LocalScale: {x: 1, y: 1, z: 1}
  m_Children:
  - {fileID: 830128883223800365}
  m_Father: {fileID: 0}
  m_RootOrder: 0
  m_LocalEulerAnglesHint: {x: 0, y: 0, z: 0}
--- !u!156049354 &5225038521294111333
Grid:
  m_ObjectHideFlags: 0
  m_CorrespondingSourceObject: {fileID: 0}
  m_PrefabInstance: {fileID: 0}
  m_PrefabAsset: {fileID: 0}
  m_GameObject: {fileID: 5144083806402975951}
  m_Enabled: 1
  m_CellSize: {x: 2.41, y: 2.41, z: 0}
  m_CellGap: {x: 0, y: 0, z: 0}
  m_CellLayout: 0
  m_CellSwizzle: 0
--- !u!114 &5214156128456319039
MonoBehaviour:
  m_ObjectHideFlags: 0
  m_CorrespondingSourceObject: {fileID: 0}
  m_PrefabInstance: {fileID: 0}
  m_PrefabAsset: {fileID: 0}
  m_GameObject: {fileID: 0}
  m_Enabled: 1
  m_EditorHideFlags: 0
  m_Script: {fileID: 12395, guid: 0000000000000000e000000000000000, type: 0}
  m_Name: Palette Settings
  m_EditorClassIdentifier: 
  cellSizing: 0
